Median_wave.vcd
$date
    Apr  9, 2020  12:08:33
$end
$version
    TOOL:	ncsim	15.20-s039
$end
$timescale
    1 ns
$end

$scope module Median_tb $end
$var reg       8 !    a [7:0] $end
$var reg       8 "    b [7:0] $end
$var reg       8 #    c [7:0] $end
$var wire      8 $    median [7:0] $end

$scope module uut $end
$var wire      1 %    a [7] $end
$var wire      1 &    a [6] $end
$var wire      1 '    a [5] $end
$var wire      1 (    a [4] $end
$var wire      1 )    a [3] $end
$var wire      1 *    a [2] $end
$var wire      1 +    a [1] $end
$var wire      1 ,    a [0] $end
$var wire      8 -    b [7:0] $end
$var wire      8 .    c [7:0] $end
$var wire      8 $    median [7:0] $end
$var wire      1 /    a1 [7] $end
$var wire      1 0    a1 [6] $end
$var wire      1 1    a1 [5] $end
$var wire      1 2    a1 [4] $end
$var wire      1 3    a1 [3] $end
$var wire      1 4    a1 [2] $end
$var wire      1 5    a1 [1] $end
$var wire      1 6    a1 [0] $end
$var wire      1 7    b1 [7] $end
$var wire      1 8    b1 [6] $end
$var wire      1 9    b1 [5] $end
$var wire      1 :    b1 [4] $end
$var wire      1 ;    b1 [3] $end
$var wire      1 <    b1 [2] $end
$var wire      1 =    b1 [1] $end
$var wire      1 >    b1 [0] $end
$var wire      8 ?    c1 [7:0] $end
$var wire      8 @    b2 [7:0] $end
$var wire      8 A    a2 [7:0] $end
$var wire      8 B    b3 [7:0] $end

$scope module s0 $end
$var wire      1 %    A [7] $end
$var wire      1 &    A [6] $end
$var wire      1 '    A [5] $end
$var wire      1 (    A [4] $end
$var wire      1 )    A [3] $end
$var wire      1 *    A [2] $end
$var wire      1 +    A [1] $end
$var wire      1 ,    A [0] $end
$var wire      8 -    B [7:0] $end
$var wire      1 /    A_ [7] $end
$var wire      1 0    A_ [6] $end
$var wire      1 1    A_ [5] $end
$var wire      1 2    A_ [4] $end
$var wire      1 3    A_ [3] $end
$var wire      1 4    A_ [2] $end
$var wire      1 5    A_ [1] $end
$var wire      1 6    A_ [0] $end
$var wire      1 7    B_ [7] $end
$var wire      1 8    B_ [6] $end
$var wire      1 9    B_ [5] $end
$var wire      1 :    B_ [4] $end
$var wire      1 ;    B_ [3] $end
$var wire      1 <    B_ [2] $end
$var wire      1 =    B_ [1] $end
$var wire      1 >    B_ [0] $end
$var wire      1 C    C_out  $end

$scope module AO0 $end
$var wire      1 %    A [7] $end
$var wire      1 &    A [6] $end
$var wire      1 '    A [5] $end
$var wire      1 (    A [4] $end
$var wire      1 )    A [3] $end
$var wire      1 *    A [2] $end
$var wire      1 +    A [1] $end
$var wire      1 ,    A [0] $end
$var wire      1 D    B [7] $end
$var wire      1 E    B [6] $end
$var wire      1 F    B [5] $end
$var wire      1 G    B [4] $end
$var wire      1 H    B [3] $end
$var wire      1 I    B [2] $end
$var wire      1 J    B [1] $end
$var wire      1 K    B [0] $end
$var wire      1 C    CarryOut  $end
$var wire      1 L    c0  $end

$scope module CO0 $end
$var wire      1 )    A [3] $end
$var wire      1 *    A [2] $end
$var wire      1 +    A [1] $end
$var wire      1 ,    A [0] $end
$var wire      1 H    B [3] $end
$var wire      1 I    B [2] $end
$var wire      1 J    B [1] $end
$var wire      1 K    B [0] $end
$var wire      1 M    CarryIn  $end
$var wire      1 L    CarryOut  $end
$var wire      4 N    p [3:0] $end
$var wire      4 O    g [3:0] $end
$upscope $end


$scope module CO1 $end
$var wire      1 %    A [3] $end
$var wire      1 &    A [2] $end
$var wire      1 '    A [1] $end
$var wire      1 (    A [0] $end
$var wire      1 D    B [3] $end
$var wire      1 E    B [2] $end
$var wire      1 F    B [1] $end
$var wire      1 G    B [0] $end
$var wire      1 L    CarryIn  $end
$var wire      1 C    CarryOut  $end
$var wire      4 P    p [3:0] $end
$var wire      4 Q    g [3:0] $end
$upscope $end

$upscope $end

$upscope $end


$scope module s1 $end
$var wire      1 7    A [7] $end
$var wire      1 8    A [6] $end
$var wire      1 9    A [5] $end
$var wire      1 :    A [4] $end
$var wire      1 ;    A [3] $end
$var wire      1 <    A [2] $end
$var wire      1 =    A [1] $end
$var wire      1 >    A [0] $end
$var wire      8 .    B [7:0] $end
$var wire      8 @    A_ [7:0] $end
$var wire      8 ?    B_ [7:0] $end
$var wire      1 R    C_out  $end

$scope module AO0 $end
$var wire      1 7    A [7] $end
$var wire      1 8    A [6] $end
$var wire      1 9    A [5] $end
$var wire      1 :    A [4] $end
$var wire      1 ;    A [3] $end
$var wire      1 <    A [2] $end
$var wire      1 =    A [1] $end
$var wire      1 >    A [0] $end
$var wire      1 S    B [7] $end
$var wire      1 T    B [6] $end
$var wire      1 U    B [5] $end
$var wire      1 V    B [4] $end
$var wire      1 W    B [3] $end
$var wire      1 X    B [2] $end
$var wire      1 Y    B [1] $end
$var wire      1 Z    B [0] $end
$var wire      1 R    CarryOut  $end
$var wire      1 [    c0  $end

$scope module CO0 $end
$var wire      1 ;    A [3] $end
$var wire      1 <    A [2] $end
$var wire      1 =    A [1] $end
$var wire      1 >    A [0] $end
$var wire      1 W    B [3] $end
$var wire      1 X    B [2] $end
$var wire      1 Y    B [1] $end
$var wire      1 Z    B [0] $end
$var wire      1 M    CarryIn  $end
$var wire      1 [    CarryOut  $end
$var wire      4 \    p [3:0] $end
$var wire      4 ]    g [3:0] $end
$upscope $end


$scope module CO1 $end
$var wire      1 7    A [3] $end
$var wire      1 8    A [2] $end
$var wire      1 9    A [1] $end
$var wire      1 :    A [0] $end
$var wire      1 S    B [3] $end
$var wire      1 T    B [2] $end
$var wire      1 U    B [1] $end
$var wire      1 V    B [0] $end
$var wire      1 [    CarryIn  $end
$var wire      1 R    CarryOut  $end
$var wire      4 ^    p [3:0] $end
$var wire      4 _    g [3:0] $end
$upscope $end

$upscope $end

$upscope $end


$scope module s2 $end
$var wire      1 /    A [7] $end
$var wire      1 0    A [6] $end
$var wire      1 1    A [5] $end
$var wire      1 2    A [4] $end
$var wire      1 3    A [3] $end
$var wire      1 4    A [2] $end
$var wire      1 5    A [1] $end
$var wire      1 6    A [0] $end
$var wire      8 @    B [7:0] $end
$var wire      8 A    A_ [7:0] $end
$var wire      8 B    B_ [7:0] $end
$var wire      1 `    C_out  $end

$scope module AO0 $end
$var wire      1 /    A [7] $end
$var wire      1 0    A [6] $end
$var wire      1 1    A [5] $end
$var wire      1 2    A [4] $end
$var wire      1 3    A [3] $end
$var wire      1 4    A [2] $end
$var wire      1 5    A [1] $end
$var wire      1 6    A [0] $end
$var wire      1 a    B [7] $end
$var wire      1 b    B [6] $end
$var wire      1 c    B [5] $end
$var wire      1 d    B [4] $end
$var wire      1 e    B [3] $end
$var wire      1 f    B [2] $end
$var wire      1 g    B [1] $end
$var wire      1 h    B [0] $end
$var wire      1 `    CarryOut  $end
$var wire      1 i    c0  $end

$scope module CO0 $end
$var wire      1 3    A [3] $end
$var wire      1 4    A [2] $end
$var wire      1 5    A [1] $end
$var wire      1 6    A [0] $end
$var wire      1 e    B [3] $end
$var wire      1 f    B [2] $end
$var wire      1 g    B [1] $end
$var wire      1 h    B [0] $end
$var wire      1 M    CarryIn  $end
$var wire      1 i    CarryOut  $end
$var wire      4 j    p [3:0] $end
$var wire      4 k    g [3:0] $end
$upscope $end


$scope module CO1 $end
$var wire      1 /    A [3] $end
$var wire      1 0    A [2] $end
$var wire      1 1    A [1] $end
$var wire      1 2    A [0] $end
$var wire      1 a    B [3] $end
$var wire      1 b    B [2] $end
$var wire      1 c    B [1] $end
$var wire      1 d    B [0] $end
$var wire      1 i    CarryIn  $end
$var wire      1 `    CarryOut  $end
$var wire      4 l    p [3:0] $end
$var wire      4 m    g [3:0] $end
$upscope $end

$upscope $end

$upscope $end

$upscope $end

$upscope $end

$enddefinitions $end
$dumpvars
b100000 !
b10000000 "
b100 #
b100000 $
0%
0&
1'
0(
0)
0*
0+
0,
b10000000 -
b100 .
1/
00
01
02
03
04
05
06
07
08
19
0:
0;
0<
0=
0>
b100 ?
b100000 @
b10000000 A
b100000 B
0C
0D
1E
1F
1G
1H
1I
1J
1K
1L
1M
b1111 N
b0 O
b111 P
b10 Q
1R
1S
1T
1U
1V
1W
0X
1Y
1Z
0[
b1011 \
b0 ]
b1111 ^
b10 _
1`
1a
1b
0c
1d
1e
1f
1g
1h
1i
b1111 j
b0 k
b1101 l
b1000 m
$end
#5
b10000 !
b10 "
b1000000 #
b1000000 .
b10 -
0'
1(
b1 Q
1D
0J
09
1:
0/
15
0T
1X
b1000000 ?
b1111 \
b10 k
b0 m
b10 A
b1011 ^
b1 _
b10000 @
b1101 N
b1111 P
1C
0L
1c
0d
b10000 B
0R
0`
1[
b10 B
b10000 A
b10000 ?
b1000000 @
b10000 $
b1110 l
0:
1=
12
05
b0 k
b1111 l
b10 ]
b0 _
b10 ?
0b
1d
b10000 B
b1000000 A
b10 $
b10000 $
b1011 l
b1 m
1`
b1000000 B
b10000 A
0`
b10000 B
b1000000 A
b1000000 $
b10000 $
#10
b1000000 !
b100000 "
b10000000 #
b10000000 .
b100000 -
1&
0(
b100 Q
0F
1J
19
0=
10
02
0S
1T
b10000000 @
0a
1b
b1111 l
b0 m
b1000000 B
b10000000 A
b0 ]
b111 ^
b10 _
b100000 ?
b1111 N
b1101 P
1L
b1000000 $
1`
b111 l
b100 m
0`
b10000000 B
b1000000 A
b10000000 $
b1000000 B
b10000000 A
b1000000 $
#15
b10000000 !
b10000 "
b10 #
b10 .
b10000 -
1%
0&
b1000 Q
1F
0G
09
1:
1/
00
1S
0Y
b10 @
1a
0g
b1101 \
b1111 l
b0 m
b10000000 B
b10 A
b1111 ^
b1 _
b10000 ?
b1110 P
1R
b10000000 $
1`
0[
b1101 j
b1000 m
0i
b10 B
b10000000 A
b10 ?
b10000 @
0d
1g
b10000 B
b10 $
b10000 $
b1111 j
b1110 l
1i
#20
b100 !
b10 "
b1 #
b1 .
b10 -
0%
1*
b100 O
b0 Q
1G
0J
0:
1=
0/
14
1Y
0Z
b1 ?
b100 k
b0 m
b100 A
b1110 \
b10 ]
b0 _
b10 @
b1101 N
b1111 P
0C
1<
0=
04
15
1C
1d
0g
b10 B
0R
1[
0`
1R
b10 $
b1111 l
0<
1=
14
05
b0 k
b10 A
b100 ]
b100 ?
b1 @
1g
0h
b1101 j
b100 k
b100 B
b1 A
b10 ]
1`
b1 ?
b10 @
0g
1h
b10 B
b100 A
b100 $
b1110 j
b10 $
b1101 j
#25
b1 !
b1000 "
b100000 #
b100000 .
b1000 -
0*
1,
b1 O
0H
1J
1;
0=
04
16
0U
1Z
b100000 ?
b1101 ^
b1 k
b1 A
b1111 \
b1000 ]
b1000 @
b111 N
0L
0C
0e
1g
b1000 B
0i
0R
b1000 ?
b100000 @
0`
b1000 $
b111 j
0;
1>
13
06
b1111 j
b0 k
b1 ]
b1 ?
0c
1e
b100000 A
b1000 k
b1101 l
1i
#30
b10 !
b1000000 "
b10000 #
b10000 .
b1000000 -
1+
0,
b10 O
0E
1H
1=
0>
10
03
1U
0V
b10000 @
1c
0d
b1110 ^
b0 k
b100 m
b1000000 B
b10000 A
b10 ]
b10 ?
b1111 N
b1011 P
1L
b1000000 $
1`
b1110 l
b10000 B
b1000000 A
b10000 $
#35
b1 !
b10000000 "
b100000 #
b100000 .
b10000000 -
0+
1,
b1 O
0D
1E
0=
1>
1/
00
0U
1V
b100000 @
0c
1d
b1101 ^
b1000 m
b100000 B
b10000000 A
b1 ]
b1 ?
b111 P
b100000 $
b1101 l
#40
b1000000 !
b10 "
b1000 #
b1000 .
b10 -
1&
0,
b0 O
b100 Q
1D
0J
18
0>
0/
15
1U
0W
b1000 @
1c
0e
b10 k
b0 m
b1000 B
b10 A
b111 \
b0 ]
b1111 ^
b100 _
b1000000 ?
b1101 N
b1111 P
1C
0L
1R
0[
b1000 $
0`
b111 j
b1111 l
1`
0i
b10 B
b1000 A
b1000 ?
b1000000 @
08
1=
10
05
b0 k
b100 m
b10 ]
b0 _
b10 @
0b
1e
b10 $
0`
b1000000 B
b1000000 A
b1000000 $
b1111 j
b0 m
1b
0g
b10 A
0R
1`
b10 B
b1000000 A
b10 ?
b1000 @
b1101 j
b100 m
0`
1i
1`
0i
0e
1g
b1000000 B
b1000 A
b10 $
b1000000 $
b111 j
b1000 B
b1000000 A
b1000 $
