Voting_wave.vcd
$date
    Apr  9, 2020  12:08:28
$end
$version
    TOOL:	ncsim	15.20-s039
$end
$timescale
    1 ns
$end

$scope module Voting_tb $end
$var reg       3 !    a [2:0] $end
$var reg       3 "    b [2:0] $end
$var reg       3 #    c [2:0] $end
$var reg       3 $    d [2:0] $end
$var reg       3 %    e [2:0] $end
$var wire      3 &    winner [2:0] $end

$scope module uut $end
$var wire      1 '    a [2] $end
$var wire      1 (    a [1] $end
$var wire      1 )    a [0] $end
$var wire      1 *    b [2] $end
$var wire      1 +    b [1] $end
$var wire      1 ,    b [0] $end
$var wire      1 -    c [2] $end
$var wire      1 .    c [1] $end
$var wire      1 /    c [0] $end
$var wire      1 0    d [2] $end
$var wire      1 1    d [1] $end
$var wire      1 2    d [0] $end
$var wire      1 3    e [2] $end
$var wire      1 4    e [1] $end
$var wire      1 5    e [0] $end
$var reg       3 6    winner [2:0] $end
$var wire      1 7    s0 [1] $end
$var wire      1 8    s0 [0] $end
$var wire      1 9    s1 [1] $end
$var wire      1 :    s1 [0] $end
$var wire      1 ;    s2 [1] $end
$var wire      1 <    s2 [0] $end
$var wire      1 =    t0 [1] $end
$var wire      1 >    t0 [0] $end
$var wire      1 ?    t1 [1] $end
$var wire      1 @    t1 [0] $end
$var wire      1 A    t2 [1] $end
$var wire      1 B    t2 [0] $end
$var wire      1 C    count0 [2] $end
$var wire      1 D    count0 [1] $end
$var wire      1 E    count0 [0] $end
$var wire      1 F    count1 [2] $end
$var wire      1 G    count1 [1] $end
$var wire      1 H    count1 [0] $end
$var wire      1 I    count2 [2] $end
$var wire      1 J    count2 [1] $end
$var wire      1 K    count2 [0] $end

$scope module HA0 $end
$var wire      1 )    x  $end
$var wire      1 ,    y  $end
$var wire      1 8    s  $end
$var wire      1 7    c  $end
$upscope $end


$scope module HA1 $end
$var wire      1 /    x  $end
$var wire      1 2    y  $end
$var wire      1 >    s  $end
$var wire      1 =    c  $end
$upscope $end


$scope module CA0 $end
$var wire      1 7    A [1] $end
$var wire      1 8    A [0] $end
$var wire      1 =    B [1] $end
$var wire      1 >    B [0] $end
$var wire      1 5    CarryIn  $end
$var wire      1 D    Sum [1] $end
$var wire      1 E    Sum [0] $end
$var wire      1 C    CarryOut  $end
$var wire      1 L    c1  $end
$var wire      2 M    p [1:0] $end
$var wire      2 N    g [1:0] $end
$upscope $end


$scope module HA3 $end
$var wire      1 (    x  $end
$var wire      1 +    y  $end
$var wire      1 :    s  $end
$var wire      1 9    c  $end
$upscope $end


$scope module HA4 $end
$var wire      1 .    x  $end
$var wire      1 1    y  $end
$var wire      1 @    s  $end
$var wire      1 ?    c  $end
$upscope $end


$scope module CA1 $end
$var wire      1 9    A [1] $end
$var wire      1 :    A [0] $end
$var wire      1 ?    B [1] $end
$var wire      1 @    B [0] $end
$var wire      1 4    CarryIn  $end
$var wire      1 G    Sum [1] $end
$var wire      1 H    Sum [0] $end
$var wire      1 F    CarryOut  $end
$var wire      1 O    c1  $end
$var wire      2 P    p [1:0] $end
$var wire      2 Q    g [1:0] $end
$upscope $end


$scope module HA5 $end
$var wire      1 '    x  $end
$var wire      1 *    y  $end
$var wire      1 <    s  $end
$var wire      1 ;    c  $end
$upscope $end


$scope module HA6 $end
$var wire      1 -    x  $end
$var wire      1 0    y  $end
$var wire      1 B    s  $end
$var wire      1 A    c  $end
$upscope $end


$scope module CA2 $end
$var wire      1 ;    A [1] $end
$var wire      1 <    A [0] $end
$var wire      1 A    B [1] $end
$var wire      1 B    B [0] $end
$var wire      1 3    CarryIn  $end
$var wire      1 J    Sum [1] $end
$var wire      1 K    Sum [0] $end
$var wire      1 I    CarryOut  $end
$var wire      1 R    c1  $end
$var wire      2 S    p [1:0] $end
$var wire      2 T    g [1:0] $end
$upscope $end

$upscope $end

$upscope $end

$enddefinitions $end
$dumpvars
b100 !
b100 "
b1 #
b100 $
b10 %
b100 &
1'
0(
0)
1*
0+
0,
0-
0.
1/
10
01
02
03
14
05
b100 6
07
08
09
0:
1;
0<
0=
1>
0?
0@
0A
1B
0C
0D
1E
0F
0G
1H
0I
1J
1K
0L
b1 M
b0 N
0O
b0 P
b0 Q
0R
b11 S
b0 T
$end
#5
b10 !
b10 "
b100 #
1-
0/
0*
1+
0'
1(
19
0;
0>
0B
1A
0K
0E
1G
b10 6
b10 &
b0 M
b10 S
b10 P
#10
b100 !
b1 "
b1 #
b1 $
b1 %
04
15
00
12
0-
1/
0+
1,
1'
0(
1<
18
09
1=
0A
0H
0J
1D
0G
1K
b1 6
b1 &
b0 P
b11 M
b1 S
1C
1L
0D
#15
b10 !
b100 #
b100 $
b10 %
14
05
10
02
1-
0/
0'
1(
1:
0<
1A
0=
1E
1D
1J
0K
b1 M
b10 S
b1 P
0C
0L
0D
b100 6
b100 &
1O
1G
#20
b1 !
0(
1)
08
17
0:
1H
1D
0E
b10 6
b10 &
b0 P
b10 M
0O
0G
b100 6
b100 &
#25
b10 !
b100 "
b1 #
b10 $
b1 %
04
15
00
11
0-
1/
1*
0,
1(
0)
1:
07
1<
1>
1@
0A
0H
0J
1K
0D
b1 S
b1 M
b1 P
b1 Q
1O
1L
1D
1G
b10 6
b10 &
#30
b100 !
b100 #
b100 $
b100 %
13
05
10
01
1-
0/
1'
0(
0:
0<
1;
0>
1A
0@
b0 M
b10 S
b10 T
b0 P
b0 Q
0L
1R
1J
0D
b100 6
b100 &
0O
1I
0R
0J
0G
#35
b10 !
b10 "
b10 #
b10 $
b10 %
03
14
00
11
0-
1.
0*
1+
0'
1(
19
0;
1?
0A
1H
0K
b0 S
b0 T
b10 P
b10 Q
1F
0I
b10 6
b10 &
#40
b1 !
b1 "
b1 #
b1 $
b1 %
04
15
01
12
0.
1/
0+
1,
0(
1)
17
09
1=
0?
1E
0H
b0 P
b0 Q
b10 M
b10 N
1C
0F
b1 6
b1 &
